Processing passages - Data Extraction • phenoriceR
…
#### test on one file ----
in_rast <- get(load(in_files[1]))
message("Working on : ", in_files[1])
out <- sprawl::extract_rast(in_rast,
                     in_vect,
                     na.value = 0, 
                     join_geom = FALSE, 
                     id_field = "ID", 
                     verbose = FALSE)
out

## $stats
## # A tibble: 392 x 12
##         ID band_n       date n_pix n_pix_val      avg   med       sd   min
##     <fctr>  <dbl>     <date> <int>     <int>    <dbl> <dbl>    <dbl> <dbl>
##  1 PHL_843      1 2003-01-01 68393        33 1101.455  1100 14.48510  1076
##  2 PHL_843      2 2003-01-01 68393        84 1239.000  1249 24.55189  1169
##  3 PHL_843      3 2003-01-01 68393       885 1340.471  1345 28.24250  1257
##  4 PHL_843      4 2003-01-01 68393       807 1387.587  1385 18.32833  1353
##  5 PHL_843      5 2004-01-01 68393        56 1479.714  1477 19.81892  1433
##  6 PHL_843      6 2004-01-01 68393        70 1600.286  1606 27.68411  1534
##  7 PHL_843      7 2004-01-01 68393       700 1687.131  1686 27.46557  1622
##  8 PHL_843      8 2004-01-01 68393       619 1758.388  1750 23.07280  1718
##  9 PHL_843      9 2005-01-01 68393        42 1845.095  1839 18.26073  1815
## 10 PHL_843     10 2005-01-01 68393        17 1953.176  1948 24.32138  1924
## # ... with 382 more rows, and 3 more variables: max <dbl>, OBJECTI <dbl>,
## #   cty <fctr>
## 
## $alldata
## # A tibble: 638,940 x 8
##         ID band_n       date n_pix_val     N value OBJECTI    cty
##     <fctr>  <int>     <date>     <int> <int> <dbl>   <dbl> <fctr>
##  1 PHL_843      1 2003-01-01        33     1  1124     843    PHL
##  2 PHL_843      1 2003-01-01        33     2  1084     843    PHL
##  3 PHL_843      1 2003-01-01        33     3  1092     843    PHL
##  4 PHL_843      1 2003-01-01        33     4  1084     843    PHL
##  5 PHL_843      1 2003-01-01        33     5  1084     843    PHL
##  6 PHL_843      1 2003-01-01        33     6  1108     843    PHL
##  7 PHL_843      1 2003-01-01        33     7  1108     843    PHL
##  8 PHL_843      1 2003-01-01        33     8  1108     843    PHL
##  9 PHL_843      1 2003-01-01        33     9  1092     843    PHL
## 10 PHL_843      1 2003-01-01        33    10  1100     843    PHL
## # ... with 638,930 more rows
…
