Processing passages • phenoriceR
…
insos_decirc_5k <- extract_rast(insos_decirc, 
                                in_fishnet, 
                                addgeom = FALSE, 
                                verbose = FALSE)

insos5kdata <- insos_decirc_5k$alldata %>% 
  dplyr::filter(!is.na(value))  %>% 
  dplyr::mutate(sosdate = as.Date("2000-01-01") + value, 
                fc = N/N_PIX, 
                area = 2146.58*fc) %>% 
  dplyr::arrange(cell_id, band_n)
insos5kdata

## # A tibble: 427,492 x 10
##    mdxtnq band_n       date N_PIX     N value cell_id    sosdate
##     <int>  <int>     <date> <int> <int> <dbl>   <int>     <date>
##  1     13     35 2011-01-01   420     5  4107      13 2011-03-31
##  2     13     35 2011-01-01   420     6  4107      13 2011-03-31
##  3     14      2 2003-01-01   420    20  1076      14 2002-12-12
##  4     14      3 2003-01-01   420    13  1201      14 2003-04-16
##  5     14      3 2003-01-01   420    35  1201      14 2003-04-16
##  6     14      4 2003-01-01   420    20  1321      14 2003-08-14
##  7     14      4 2003-01-01   420    41  1313      14 2003-08-06
##  8     14      4 2003-01-01   420   125  1321      14 2003-08-14
##  9     14      4 2003-01-01   420   146  1361      14 2003-09-23
## 10     14      6 2004-01-01   420   124  1465      14 2004-01-05
## # ... with 427,482 more rows, and 2 more variables: fc <dbl>, area <dbl>

summary(insos5kdata$fc)

##     Min.  1st Qu.   Median     Mean  3rd Qu.     Max. 
## 0.002268 0.256236 0.509524 0.505064 0.754762 1.000000

here we get, for each 5km cell, the average sos date estimated in the different years and seasons, the number of pixels detected within the cell from which we can compute the detected area (so that we can filter-out 5k cells where only few pixels where rice - in this case you can see that half of the 5k cells got a 50 % rice “detection”).

Again, having de-circulated the doys allows to treat all data as a continuous series. Here I plot the frequency histograms derived by considering all Nueva Ecjia cells with fc above 0.5:

insos5kdata_filt <- insos5kdata %>% 
  dplyr::filter(fc >= 0.5)
insos5kdata_filt

## # A tibble: 217,830 x 10
##    mdxtnq band_n       date N_PIX     N value cell_id    sosdate        fc
##     <int>  <int>     <date> <int> <int> <dbl>   <int>     <date>     <dbl>
##  1     15      2 2003-01-01   420   214  1084      15 2002-12-20 0.5095238
##  2     15      2 2003-01-01   420   215  1076      15 2002-12-12 0.5119048
##  3     15      2 2003-01-01   420   216  1084      15 2002-12-20 0.5142857
##  4     15      2 2003-01-01   420   282  1084      15 2002-12-20 0.6714286
##  5     15      6 2004-01-01   420   214  1449      15 2003-12-20 0.5095238
##  6     15      6 2004-01-01   420   218  1457      15 2003-12-28 0.5190476
##  7     15      6 2004-01-01   420   236  1457      15 2003-12-28 0.5619048
##  8     15      6 2004-01-01   420   238  1457      15 2003-12-28 0.5666667
##  9     15      6 2004-01-01   420   258  1457      15 2003-12-28 0.6142857
## 10     15      6 2004-01-01   420   261  1441      15 2003-12-12 0.6214286
## # ... with 217,820 more rows, and 1 more variables: area <dbl>
…
