RiceAtlas Comparison • phenoriceR
…
riceatlas_phl %>% 
  select(Sub_region, N_seasons, Season, Pheno_stage, Start, Peak, End)

## Simple feature collection with 492 features and 7 fields
## geometry type:  MULTIPOLYGON
## dimension:      XY
## bbox:           xmin: 116.9283 ymin: 4.58694 xmax: 126.6054 ymax: 19.96611
## epsg (SRID):    4326
## proj4string:    +proj=longlat +datum=WGS84 +no_defs
## # A tibble: 492 x 8
##           Sub_region N_seasons Season Pheno_stage Start  Peak   End
##                <chr>     <int>  <chr>       <chr> <int> <int> <int>
##  1 Mountain Province         2    Wet   plant_st1   105   181   258
##  2 Mountain Province         2    Dry   plant_st2   349   365    46
##  3 Mountain Province         2   <NA>   plant_st3     0     0     0
##  4 Mountain Province         2    Wet    harv_st1   227   304    15
##  5 Mountain Province         2    Dry    harv_st2   105   120   166
##  6 Mountain Province         2   <NA>    harv_st3     0     0     0
##  7 Negros Occidental         2   <NA>   plant_st1   319    15    74
##  8 Negros Occidental         2   <NA>   plant_st2   135   196   258
##  9 Negros Occidental         2   <NA>   plant_st3     0     0     0
## 10 Negros Occidental         2   <NA>    harv_st1    46   105   135
## # ... with 482 more rows, and 1 more variables: geometry <simple_feature>
…
